com/microservices/apigateway/security/configuration/TracingConfiguration.class
com/microservices/apigateway/security/model/ApiResponse.class
com/microservices/apigateway/security/model/BaseModel.class
com/microservices/apigateway/security/configuration/MicrometerConfiguration.class
com/microservices/apigateway/security/model/Event.class
com/microservices/apigateway/security/Combination.class
com/microservices/apigateway/security/common/camel/AuthProducer.class
com/microservices/apigateway/security/model/Product.class
com/microservices/apigateway/security/model/health/springboot2/Health.class
com/microservices/apigateway/security/model/health/springboot1/CamelHealthChecks.class
com/microservices/apigateway/security/route/internal/SupplierInternalRoute.class
com/microservices/apigateway/security/common/camel/AuthConsumer.class
META-INF/spring-configuration-metadata.json
com/microservices/apigateway/security/configuration/KeycloakServiceAccountConfiguration.class
com/microservices/apigateway/security/route/external/IntegrationRestRoute.class
com/microservices/apigateway/security/configuration/ProductConfiguration.class
com/microservices/apigateway/security/common/camel/AuthComponent.class
com/microservices/apigateway/security/model/health/springboot1/Health.class
com/microservices/apigateway/security/model/health/springboot1/DiskSpace.class
com/microservices/apigateway/security/configuration/StockConfiguration.class
com/microservices/apigateway/security/configuration/SupplierConfiguration.class
com/microservices/apigateway/security/route/internal/MetricsInternalRoute.class
com/microservices/apigateway/security/route/internal/SupplierInternalRoute$InsecureX509TrustManager.class
com/microservices/apigateway/security/model/health/springboot1/Camel.class
com/microservices/apigateway/security/common/oauth2/OAuth2ClientCredentials.class
com/microservices/apigateway/security/route/internal/ProductInternalRoute.class
com/microservices/apigateway/security/model/ErrorMessage.class
com/microservices/apigateway/security/common/camel/AuthEndpoint.class
com/microservices/apigateway/security/common/oauth2/Token.class
com/microservices/apigateway/security/processor/ExceptionProcessor.class
com/microservices/apigateway/security/configuration/MetricsConfiguration.class
com/microservices/apigateway/security/route/internal/StockInternalRoute.class
com/microservices/apigateway/security/AuthFuseApplication.class
